{
  "playlist": [

  ],
  "user_info": {
    "user_name": "bkiosk",
    "user_password": "lighthouse1918"
  },
  "settings": {
    "backgroundColor": "#ffffff",
    "splashFlag": "On",
    "audioOutput": "HDMI"
  }
}
